May 04, 2020 1:37:32 PM com.carserviceapi.testCase.TC_8_Delete_Car deleteCar
INFO: ======== TC_8_Delete_Car STARTED ========
May 04, 2020 1:37:32 PM com.carserviceapi.testCase.TC_8_Delete_Car deleteCar
INFO: Sample Test ID = 7
May 04, 2020 1:37:33 PM com.carserviceapi.testCase.TC_8_Delete_Car checkResponseBody
INFO: ======== Checking Response Body ========
May 04, 2020 1:37:33 PM com.carserviceapi.testCase.TC_8_Delete_Car checkResponseBody
INFO: Response Body ==> {"id":"7","carType":"City","timeIn":"11:10 AM","problem":"Wheel Steering"}
May 04, 2020 1:37:33 PM com.carserviceapi.testCase.TC_8_Delete_Car checkStatusCode
INFO: ======== Checking Status Code ========
May 04, 2020 1:37:33 PM com.carserviceapi.testCase.TC_8_Delete_Car checkStatusCode
INFO: Status Code ==> 200
May 04, 2020 1:37:33 PM com.carserviceapi.testCase.TC_8_Delete_Car checkResponseTime
INFO: ======== Checking Response Time ========
May 04, 2020 1:37:33 PM com.carserviceapi.testCase.TC_8_Delete_Car checkResponseTime
INFO: Response Time ==> 1480 ms
May 04, 2020 1:37:33 PM com.carserviceapi.testCase.TC_8_Delete_Car checkStatusLine
INFO: ======== Checking Status Line ========
May 04, 2020 1:37:33 PM com.carserviceapi.testCase.TC_8_Delete_Car checkStatusLine
INFO: Status Line ==> HTTP/1.1 200 OK
May 04, 2020 1:37:33 PM com.carserviceapi.testCase.TC_8_Delete_Car checkContentType
INFO: ======== Checking Content Type ========
May 04, 2020 1:37:33 PM com.carserviceapi.testCase.TC_8_Delete_Car checkContentType
INFO: Content Type ==> application/json
May 04, 2020 1:37:33 PM com.carserviceapi.testCase.TC_8_Delete_Car checkServer
INFO: ======== Checking Server Type ========
May 04, 2020 1:37:33 PM com.carserviceapi.testCase.TC_8_Delete_Car checkServer
INFO: Server Type ==> Cowboy
May 04, 2020 1:37:33 PM com.carserviceapi.testCase.TC_8_Delete_Car checkContentLength
INFO: ======== Checking Content Length ========
May 04, 2020 1:37:33 PM com.carserviceapi.testCase.TC_8_Delete_Car checkContentLength
INFO: Content Length ==> 74
May 04, 2020 1:37:33 PM com.carserviceapi.testCase.TC_8_Delete_Car tearDown
INFO: ======== TC_8_Delete_Car FINISHED ========
