May 04, 2020 1:37:10 PM com.carserviceapi.testCase.TC_3_Add_Car_From_Excel addCarExcel
INFO: ======== TC_3_Add_Car_From_Excel STARTED ========
May 04, 2020 1:37:12 PM com.carserviceapi.testCase.TC_3_Add_Car_From_Excel checkResponse
INFO: ======== Checking Response Body ========
May 04, 2020 1:37:12 PM com.carserviceapi.testCase.TC_3_Add_Car_From_Excel checkResponse
INFO: Response Body ==> {"id":"29","carType":"Brio","timeIn":".10:15 AM","problem":"Transmission"}
May 04, 2020 1:37:12 PM com.carserviceapi.testCase.TC_3_Add_Car_From_Excel checkResponse
INFO: ======== Checking Status Code ========
May 04, 2020 1:37:12 PM com.carserviceapi.testCase.TC_3_Add_Car_From_Excel checkResponse
INFO: Status Code ==> 201
May 04, 2020 1:37:12 PM com.carserviceapi.testCase.TC_3_Add_Car_From_Excel checkResponse
INFO: ======== Checking Response Time ========
May 04, 2020 1:37:12 PM com.carserviceapi.testCase.TC_3_Add_Car_From_Excel checkResponse
INFO: Response Time ==> 1972 ms
May 04, 2020 1:37:12 PM com.carserviceapi.testCase.TC_3_Add_Car_From_Excel checkResponse
INFO: ======== Checking Status Line ========
May 04, 2020 1:37:12 PM com.carserviceapi.testCase.TC_3_Add_Car_From_Excel checkResponse
INFO: Status Line ==> HTTP/1.1 201 Created
May 04, 2020 1:37:12 PM com.carserviceapi.testCase.TC_3_Add_Car_From_Excel checkResponse
INFO: ======== Checking Content Type ========
May 04, 2020 1:37:12 PM com.carserviceapi.testCase.TC_3_Add_Car_From_Excel checkResponse
INFO: Content Type ==> application/json
May 04, 2020 1:37:12 PM com.carserviceapi.testCase.TC_3_Add_Car_From_Excel checkResponse
INFO: ======== Checking Server Type ========
May 04, 2020 1:37:12 PM com.carserviceapi.testCase.TC_3_Add_Car_From_Excel checkResponse
INFO: Server Type ==> Cowboy
May 04, 2020 1:37:12 PM com.carserviceapi.testCase.TC_3_Add_Car_From_Excel checkResponse
INFO: ======== Checking Content Length ========
May 04, 2020 1:37:12 PM com.carserviceapi.testCase.TC_3_Add_Car_From_Excel checkResponse
INFO: Content Length ==> 74
May 04, 2020 1:37:14 PM com.carserviceapi.testCase.TC_3_Add_Car_From_Excel checkResponse
INFO: ======== Checking Response Body ========
May 04, 2020 1:37:14 PM com.carserviceapi.testCase.TC_3_Add_Car_From_Excel checkResponse
INFO: Response Body ==> {"id":"30","carType":"Mobilio","timeIn":".10:40 AM","problem":"Radiator"}
May 04, 2020 1:37:14 PM com.carserviceapi.testCase.TC_3_Add_Car_From_Excel checkResponse
INFO: ======== Checking Status Code ========
May 04, 2020 1:37:14 PM com.carserviceapi.testCase.TC_3_Add_Car_From_Excel checkResponse
INFO: Status Code ==> 201
May 04, 2020 1:37:14 PM com.carserviceapi.testCase.TC_3_Add_Car_From_Excel checkResponse
INFO: ======== Checking Response Time ========
May 04, 2020 1:37:14 PM com.carserviceapi.testCase.TC_3_Add_Car_From_Excel checkResponse
INFO: Response Time ==> 1706 ms
May 04, 2020 1:37:14 PM com.carserviceapi.testCase.TC_3_Add_Car_From_Excel checkResponse
INFO: ======== Checking Status Line ========
May 04, 2020 1:37:14 PM com.carserviceapi.testCase.TC_3_Add_Car_From_Excel checkResponse
INFO: Status Line ==> HTTP/1.1 201 Created
May 04, 2020 1:37:14 PM com.carserviceapi.testCase.TC_3_Add_Car_From_Excel checkResponse
INFO: ======== Checking Content Type ========
May 04, 2020 1:37:14 PM com.carserviceapi.testCase.TC_3_Add_Car_From_Excel checkResponse
INFO: Content Type ==> application/json
May 04, 2020 1:37:14 PM com.carserviceapi.testCase.TC_3_Add_Car_From_Excel checkResponse
INFO: ======== Checking Server Type ========
May 04, 2020 1:37:14 PM com.carserviceapi.testCase.TC_3_Add_Car_From_Excel checkResponse
INFO: Server Type ==> Cowboy
May 04, 2020 1:37:14 PM com.carserviceapi.testCase.TC_3_Add_Car_From_Excel checkResponse
INFO: ======== Checking Content Length ========
May 04, 2020 1:37:14 PM com.carserviceapi.testCase.TC_3_Add_Car_From_Excel checkResponse
INFO: Content Length ==> 73
May 04, 2020 1:37:16 PM com.carserviceapi.testCase.TC_3_Add_Car_From_Excel checkResponse
INFO: ======== Checking Response Body ========
May 04, 2020 1:37:16 PM com.carserviceapi.testCase.TC_3_Add_Car_From_Excel checkResponse
INFO: Response Body ==> {"id":"31","carType":"Jazz","timeIn":".11:25 AM","problem":"Transmission"}
May 04, 2020 1:37:16 PM com.carserviceapi.testCase.TC_3_Add_Car_From_Excel checkResponse
INFO: ======== Checking Status Code ========
May 04, 2020 1:37:16 PM com.carserviceapi.testCase.TC_3_Add_Car_From_Excel checkResponse
INFO: Status Code ==> 201
May 04, 2020 1:37:16 PM com.carserviceapi.testCase.TC_3_Add_Car_From_Excel checkResponse
INFO: ======== Checking Response Time ========
May 04, 2020 1:37:16 PM com.carserviceapi.testCase.TC_3_Add_Car_From_Excel checkResponse
INFO: Response Time ==> 1493 ms
May 04, 2020 1:37:16 PM com.carserviceapi.testCase.TC_3_Add_Car_From_Excel checkResponse
INFO: ======== Checking Status Line ========
May 04, 2020 1:37:16 PM com.carserviceapi.testCase.TC_3_Add_Car_From_Excel checkResponse
INFO: Status Line ==> HTTP/1.1 201 Created
May 04, 2020 1:37:16 PM com.carserviceapi.testCase.TC_3_Add_Car_From_Excel checkResponse
INFO: ======== Checking Content Type ========
May 04, 2020 1:37:16 PM com.carserviceapi.testCase.TC_3_Add_Car_From_Excel checkResponse
INFO: Content Type ==> application/json
May 04, 2020 1:37:16 PM com.carserviceapi.testCase.TC_3_Add_Car_From_Excel checkResponse
INFO: ======== Checking Server Type ========
May 04, 2020 1:37:16 PM com.carserviceapi.testCase.TC_3_Add_Car_From_Excel checkResponse
INFO: Server Type ==> Cowboy
May 04, 2020 1:37:16 PM com.carserviceapi.testCase.TC_3_Add_Car_From_Excel checkResponse
INFO: ======== Checking Content Length ========
May 04, 2020 1:37:16 PM com.carserviceapi.testCase.TC_3_Add_Car_From_Excel checkResponse
INFO: Content Length ==> 74
May 04, 2020 1:37:18 PM com.carserviceapi.testCase.TC_3_Add_Car_From_Excel checkResponse
INFO: ======== Checking Response Body ========
May 04, 2020 1:37:18 PM com.carserviceapi.testCase.TC_3_Add_Car_From_Excel checkResponse
INFO: Response Body ==> {"id":"32","carType":"Brio","timeIn":".01:00 PM","problem":"AC"}
May 04, 2020 1:37:18 PM com.carserviceapi.testCase.TC_3_Add_Car_From_Excel checkResponse
INFO: ======== Checking Status Code ========
May 04, 2020 1:37:18 PM com.carserviceapi.testCase.TC_3_Add_Car_From_Excel checkResponse
INFO: Status Code ==> 201
May 04, 2020 1:37:18 PM com.carserviceapi.testCase.TC_3_Add_Car_From_Excel checkResponse
INFO: ======== Checking Response Time ========
May 04, 2020 1:37:18 PM com.carserviceapi.testCase.TC_3_Add_Car_From_Excel checkResponse
INFO: Response Time ==> 2278 ms
May 04, 2020 1:37:18 PM com.carserviceapi.testCase.TC_3_Add_Car_From_Excel checkResponse
INFO: ======== Checking Status Line ========
May 04, 2020 1:37:18 PM com.carserviceapi.testCase.TC_3_Add_Car_From_Excel checkResponse
INFO: Status Line ==> HTTP/1.1 201 Created
May 04, 2020 1:37:18 PM com.carserviceapi.testCase.TC_3_Add_Car_From_Excel checkResponse
INFO: ======== Checking Content Type ========
May 04, 2020 1:37:18 PM com.carserviceapi.testCase.TC_3_Add_Car_From_Excel checkResponse
INFO: Content Type ==> application/json
May 04, 2020 1:37:18 PM com.carserviceapi.testCase.TC_3_Add_Car_From_Excel checkResponse
INFO: ======== Checking Server Type ========
May 04, 2020 1:37:18 PM com.carserviceapi.testCase.TC_3_Add_Car_From_Excel checkResponse
INFO: Server Type ==> Cowboy
May 04, 2020 1:37:18 PM com.carserviceapi.testCase.TC_3_Add_Car_From_Excel checkResponse
INFO: ======== Checking Content Length ========
May 04, 2020 1:37:18 PM com.carserviceapi.testCase.TC_3_Add_Car_From_Excel checkResponse
INFO: Content Length ==> 64
May 04, 2020 1:37:20 PM com.carserviceapi.testCase.TC_3_Add_Car_From_Excel checkResponse
INFO: ======== Checking Response Body ========
May 04, 2020 1:37:20 PM com.carserviceapi.testCase.TC_3_Add_Car_From_Excel checkResponse
INFO: Response Body ==> {"id":"33","carType":"Accord","timeIn":".02:20 AM","problem":"Battery"}
May 04, 2020 1:37:20 PM com.carserviceapi.testCase.TC_3_Add_Car_From_Excel checkResponse
INFO: ======== Checking Status Code ========
May 04, 2020 1:37:20 PM com.carserviceapi.testCase.TC_3_Add_Car_From_Excel checkResponse
INFO: Status Code ==> 201
May 04, 2020 1:37:20 PM com.carserviceapi.testCase.TC_3_Add_Car_From_Excel checkResponse
INFO: ======== Checking Response Time ========
May 04, 2020 1:37:20 PM com.carserviceapi.testCase.TC_3_Add_Car_From_Excel checkResponse
INFO: Response Time ==> 2241 ms
May 04, 2020 1:37:20 PM com.carserviceapi.testCase.TC_3_Add_Car_From_Excel checkResponse
INFO: ======== Checking Status Line ========
May 04, 2020 1:37:20 PM com.carserviceapi.testCase.TC_3_Add_Car_From_Excel checkResponse
INFO: Status Line ==> HTTP/1.1 201 Created
May 04, 2020 1:37:20 PM com.carserviceapi.testCase.TC_3_Add_Car_From_Excel checkResponse
INFO: ======== Checking Content Type ========
May 04, 2020 1:37:20 PM com.carserviceapi.testCase.TC_3_Add_Car_From_Excel checkResponse
INFO: Content Type ==> application/json
May 04, 2020 1:37:20 PM com.carserviceapi.testCase.TC_3_Add_Car_From_Excel checkResponse
INFO: ======== Checking Server Type ========
May 04, 2020 1:37:20 PM com.carserviceapi.testCase.TC_3_Add_Car_From_Excel checkResponse
INFO: Server Type ==> Cowboy
May 04, 2020 1:37:20 PM com.carserviceapi.testCase.TC_3_Add_Car_From_Excel checkResponse
INFO: ======== Checking Content Length ========
May 04, 2020 1:37:20 PM com.carserviceapi.testCase.TC_3_Add_Car_From_Excel checkResponse
INFO: Content Length ==> 71
May 04, 2020 1:37:20 PM com.carserviceapi.testCase.TC_3_Add_Car_From_Excel tearDown
INFO: ======== TC_3_Add_Car_From_Excel FINISHED ========
May 04, 2020 1:37:20 PM com.carserviceapi.testCase.TC_4_Add_Car_From_Text addCarText
INFO: ======== TC_4_Add_Car_From_Text STARTED ========
May 04, 2020 1:37:26 PM com.carserviceapi.testCase.TC_4_Add_Car_From_Text checkResponseBody
INFO: ======== Checking Response Body ========
May 04, 2020 1:37:26 PM com.carserviceapi.testCase.TC_4_Add_Car_From_Text checkResponseBody
INFO: Response Body ==> {"id":"36","carType":"Civic","timeIn":"03:00 PM","problem":"AC"}
May 04, 2020 1:37:26 PM com.carserviceapi.testCase.TC_4_Add_Car_From_Text checkStatusCode
INFO: ======== Checking Status Code ========
May 04, 2020 1:37:26 PM com.carserviceapi.testCase.TC_4_Add_Car_From_Text checkStatusCode
INFO: Status Code ==> 201
May 04, 2020 1:37:26 PM com.carserviceapi.testCase.TC_4_Add_Car_From_Text checkResponseTime
INFO: ======== Checking Response Time ========
May 04, 2020 1:37:26 PM com.carserviceapi.testCase.TC_4_Add_Car_From_Text checkResponseTime
INFO: Response Time ==> 1396 ms
May 04, 2020 1:37:26 PM com.carserviceapi.testCase.TC_4_Add_Car_From_Text checkStatusLine
INFO: ======== Checking Status Line ========
May 04, 2020 1:37:26 PM com.carserviceapi.testCase.TC_4_Add_Car_From_Text checkStatusLine
INFO: Status Line ==> HTTP/1.1 201 Created
May 04, 2020 1:37:26 PM com.carserviceapi.testCase.TC_4_Add_Car_From_Text checkContentType
INFO: ======== Checking Content Type ========
May 04, 2020 1:37:26 PM com.carserviceapi.testCase.TC_4_Add_Car_From_Text checkContentType
INFO: Content Type ==> application/json
May 04, 2020 1:37:26 PM com.carserviceapi.testCase.TC_4_Add_Car_From_Text checkServer
INFO: ======== Checking Server Type ========
May 04, 2020 1:37:26 PM com.carserviceapi.testCase.TC_4_Add_Car_From_Text checkServer
INFO: Server Type ==> Cowboy
May 04, 2020 1:37:26 PM com.carserviceapi.testCase.TC_4_Add_Car_From_Text checkContentLength
INFO: ======== Checking Content Length ========
May 04, 2020 1:37:26 PM com.carserviceapi.testCase.TC_4_Add_Car_From_Text checkContentLength
INFO: Content Length ==> 64
May 04, 2020 1:37:26 PM com.carserviceapi.testCase.TC_4_Add_Car_From_Text tearDown
INFO: ======== TC_4_Add_Car_From_Text FINISHED ========
May 04, 2020 1:37:26 PM com.carserviceapi.testCase.TC_5_Get_All_Cars getAllCars
INFO: ======== TC_5_Get_All_Cars STARTED ========
May 04, 2020 1:37:28 PM com.carserviceapi.testCase.TC_5_Get_All_Cars checkResponseBody
INFO: ======== Checking Response Body ========
May 04, 2020 1:37:28 PM com.carserviceapi.testCase.TC_5_Get_All_Cars checkResponseBody
INFO: Response Body ==> [{"id":"1","carType":"Jazz","timeIn":"10:00 AM","problem":"Changed Problem"},{"id":"2","carType":"Brio","timeIn":".10:15 AM","problem":"Transmission"},{"id":"3","carType":"Mobilio","timeIn":".10:40 AM","problem":"Radiator"},{"id":"5","carType":"Brio","timeIn":".01:00 PM","problem":"AC"},{"id":"7","carType":"City","timeIn":"11:10 AM","problem":"Wheel Steering"},{"id":"9","carType":"Civic","timeIn":"03:00 PM","problem":"AC"},{"id":"10","carType":"Jazz","timeIn":"10:00 AM","problem":"AC"},{"id":"11","carType":"Brio","timeIn":".10:15 AM","problem":"Transmission"},{"id":"12","carType":"Mobilio","timeIn":".10:40 AM","problem":"Radiator"},{"id":"13","carType":"Jazz","timeIn":".11:25 AM","problem":"Transmission"},{"id":"14","carType":"Brio","timeIn":".01:00 PM","problem":"AC"},{"id":"15","carType":"Accord","timeIn":".02:20 AM","problem":"Battery"},{"id":"16","carType":"City","timeIn":"11:10 AM","problem":"Wheel Steering"},{"id":"17","carType":"Accord","timeIn":"02:00 PM","problem":"Battery"},{"id":"18","carType":"Civic","timeIn":"03:00 PM","problem":"AC"},{"id":"19","carType":"Jazz","timeIn":"10:00 AM","problem":"AC"},{"id":"20","carType":"Brio","timeIn":".10:15 AM","problem":"Transmission"},{"id":"21","carType":"Mobilio","timeIn":".10:40 AM","problem":"Radiator"},{"id":"22","carType":"Jazz","timeIn":".11:25 AM","problem":"Transmission"},{"id":"23","carType":"Brio","timeIn":".01:00 PM","problem":"AC"},{"id":"24","carType":"Accord","timeIn":".02:20 AM","problem":"Battery"},{"id":"25","carType":"City","timeIn":"11:10 AM","problem":"Wheel Steering"},{"id":"26","carType":"Accord","timeIn":"02:00 PM","problem":"Battery"},{"id":"27","carType":"Civic","timeIn":"03:00 PM","problem":"AC"},{"id":"28","carType":"Jazz","timeIn":"10:00 AM","problem":"AC"},{"id":"29","carType":"Brio","timeIn":".10:15 AM","problem":"Transmission"},{"id":"30","carType":"Mobilio","timeIn":".10:40 AM","problem":"Radiator"},{"id":"31","carType":"Jazz","timeIn":".11:25 AM","problem":"Transmission"},{"id":"32","carType":"Brio","timeIn":".01:00 PM","problem":"AC"},{"id":"33","carType":"Accord","timeIn":".02:20 AM","problem":"Battery"},{"id":"34","carType":"City","timeIn":"11:10 AM","problem":"Wheel Steering"},{"id":"35","carType":"Accord","timeIn":"02:00 PM","problem":"Battery"},{"id":"36","carType":"Civic","timeIn":"03:00 PM","problem":"AC"}]
May 04, 2020 1:37:28 PM com.carserviceapi.testCase.TC_5_Get_All_Cars checkStatusCode
INFO: ======== Checking Status Code ========
May 04, 2020 1:37:28 PM com.carserviceapi.testCase.TC_5_Get_All_Cars checkStatusCode
INFO: Status Code ==> 200
May 04, 2020 1:37:28 PM com.carserviceapi.testCase.TC_5_Get_All_Cars checkResponseTime
INFO: ======== Checking Response Time ========
May 04, 2020 1:37:28 PM com.carserviceapi.testCase.TC_5_Get_All_Cars checkResponseTime
INFO: Response Time ==> 1752 ms
May 04, 2020 1:37:28 PM com.carserviceapi.testCase.TC_5_Get_All_Cars checkStatusLine
INFO: ======== Checking Status Line ========
May 04, 2020 1:37:28 PM com.carserviceapi.testCase.TC_5_Get_All_Cars checkStatusLine
INFO: Status Line ==> HTTP/1.1 200 OK
May 04, 2020 1:37:28 PM com.carserviceapi.testCase.TC_5_Get_All_Cars checkContentType
INFO: ======== Checking Content Type ========
May 04, 2020 1:37:28 PM com.carserviceapi.testCase.TC_5_Get_All_Cars checkContentType
INFO: Content Type ==> application/json
May 04, 2020 1:37:28 PM com.carserviceapi.testCase.TC_5_Get_All_Cars checkServer
INFO: ======== Checking Server Type ========
May 04, 2020 1:37:28 PM com.carserviceapi.testCase.TC_5_Get_All_Cars checkServer
INFO: Server Type ==> Cowboy
May 04, 2020 1:37:28 PM com.carserviceapi.testCase.TC_5_Get_All_Cars checkContentLength
INFO: ======== Checking Content Length ========
May 04, 2020 1:37:28 PM com.carserviceapi.testCase.TC_5_Get_All_Cars checkContentLength
INFO: Content Length ==> null
May 04, 2020 1:37:28 PM com.carserviceapi.testCase.TC_5_Get_All_Cars tearDown
INFO: ======== TC_5_Get_All_Cars FINISHED ========
May 04, 2020 1:37:28 PM com.carserviceapi.testCase.TC_6_Get_Selected_Car getSelectedCar
INFO: ======== TC_6_Get_Selected_Car STARTED ========
May 04, 2020 1:37:28 PM com.carserviceapi.testCase.TC_6_Get_Selected_Car getSelectedCar
INFO: Sampe Test ID = 9
May 04, 2020 1:37:29 PM com.carserviceapi.testCase.TC_6_Get_Selected_Car checkResponseBody
INFO: ======== Checking Response Body ========
May 04, 2020 1:37:29 PM com.carserviceapi.testCase.TC_6_Get_Selected_Car checkResponseBody
INFO: Response Body ==> {"id":"9","carType":"Civic","timeIn":"03:00 PM","problem":"AC"}
May 04, 2020 1:37:29 PM com.carserviceapi.testCase.TC_6_Get_Selected_Car checkID
INFO: ======== Checking Response ID Value ========
May 04, 2020 1:37:30 PM com.carserviceapi.testCase.TC_6_Get_Selected_Car checkID
INFO: Response ID Value ==> 9
May 04, 2020 1:37:30 PM com.carserviceapi.testCase.TC_6_Get_Selected_Car checkStatusCode
INFO: ======== Checking Status Code ========
May 04, 2020 1:37:30 PM com.carserviceapi.testCase.TC_6_Get_Selected_Car checkStatusCode
INFO: Status Code ==> 200
May 04, 2020 1:37:30 PM com.carserviceapi.testCase.TC_6_Get_Selected_Car checkResponseTime
INFO: ======== Checking Response Time ========
May 04, 2020 1:37:30 PM com.carserviceapi.testCase.TC_6_Get_Selected_Car checkResponseTime
INFO: Response Time ==> 1451 ms
May 04, 2020 1:37:30 PM com.carserviceapi.testCase.TC_6_Get_Selected_Car checkStatusLine
INFO: ======== Checking Status Line ========
May 04, 2020 1:37:30 PM com.carserviceapi.testCase.TC_6_Get_Selected_Car checkStatusLine
INFO: Status Line ==> HTTP/1.1 200 OK
May 04, 2020 1:37:30 PM com.carserviceapi.testCase.TC_6_Get_Selected_Car checkContentType
INFO: ======== Checking Content Type ========
May 04, 2020 1:37:30 PM com.carserviceapi.testCase.TC_6_Get_Selected_Car checkContentType
INFO: Content Type ==> application/json
May 04, 2020 1:37:30 PM com.carserviceapi.testCase.TC_6_Get_Selected_Car checkServer
INFO: ======== Checking Server Type ========
May 04, 2020 1:37:30 PM com.carserviceapi.testCase.TC_6_Get_Selected_Car checkServer
INFO: Server Type ==> Cowboy
May 04, 2020 1:37:30 PM com.carserviceapi.testCase.TC_6_Get_Selected_Car checkContentLength
INFO: ======== Checking Content Length ========
May 04, 2020 1:37:30 PM com.carserviceapi.testCase.TC_6_Get_Selected_Car checkContentLength
INFO: Content Length ==> 63
May 04, 2020 1:37:30 PM com.carserviceapi.testCase.TC_6_Get_Selected_Car tearDown
INFO: ======== TC_6_Get_Selected_Car FINISHED ========
May 04, 2020 1:37:30 PM com.carserviceapi.testCase.TC_7_Edit_Car editCar
INFO: ======== TC_7_Edit_Car STARTED ========
May 04, 2020 1:37:30 PM com.carserviceapi.testCase.TC_7_Edit_Car editCar
INFO: Sample Test ID = 3
May 04, 2020 1:37:32 PM com.carserviceapi.testCase.TC_7_Edit_Car checkResponseBody
INFO: ======== Checking Response Body ========
May 04, 2020 1:37:32 PM com.carserviceapi.testCase.TC_7_Edit_Car checkResponseBody
INFO: Response Body ==> {"id":"3","carType":"Mobilio","timeIn":".10:40 AM","problem":"Changed Problem"}
May 04, 2020 1:37:32 PM com.carserviceapi.testCase.TC_7_Edit_Car checkStatusCode
INFO: ======== Checking Status Code ========
May 04, 2020 1:37:32 PM com.carserviceapi.testCase.TC_7_Edit_Car checkStatusCode
INFO: Status Code ==> 200
May 04, 2020 1:37:32 PM com.carserviceapi.testCase.TC_7_Edit_Car checkResponseTime
INFO: ======== Checking Response Time ========
May 04, 2020 1:37:32 PM com.carserviceapi.testCase.TC_7_Edit_Car checkResponseTime
INFO: Response Time ==> 1854 ms
May 04, 2020 1:37:32 PM com.carserviceapi.testCase.TC_7_Edit_Car checkStatusLine
INFO: ======== Checking Status Line ========
May 04, 2020 1:37:32 PM com.carserviceapi.testCase.TC_7_Edit_Car checkStatusLine
INFO: Status Line ==> HTTP/1.1 200 OK
May 04, 2020 1:37:32 PM com.carserviceapi.testCase.TC_7_Edit_Car checkContentType
INFO: ======== Checking Content Type ========
May 04, 2020 1:37:32 PM com.carserviceapi.testCase.TC_7_Edit_Car checkContentType
INFO: Content Type ==> application/json
May 04, 2020 1:37:32 PM com.carserviceapi.testCase.TC_7_Edit_Car checkServer
INFO: ======== Checking Server Type ========
May 04, 2020 1:37:32 PM com.carserviceapi.testCase.TC_7_Edit_Car checkServer
INFO: Server Type ==> Cowboy
May 04, 2020 1:37:32 PM com.carserviceapi.testCase.TC_7_Edit_Car checkContentLength
INFO: ======== Checking Content Length ========
May 04, 2020 1:37:32 PM com.carserviceapi.testCase.TC_7_Edit_Car checkContentLength
INFO: Content Length ==> 79
May 04, 2020 1:37:32 PM com.carserviceapi.testCase.TC_7_Edit_Car tearDown
INFO: ======== TC_7_Edit_Car FINISHED ========
May 04, 2020 1:37:32 PM com.carserviceapi.testCase.TC_8_Delete_Car deleteCar
INFO: ======== TC_8_Delete_Car STARTED ========
May 04, 2020 1:37:32 PM com.carserviceapi.testCase.TC_8_Delete_Car deleteCar
INFO: Sample Test ID = 7
May 04, 2020 1:37:33 PM com.carserviceapi.testCase.TC_8_Delete_Car checkResponseBody
INFO: ======== Checking Response Body ========
May 04, 2020 1:37:33 PM com.carserviceapi.testCase.TC_8_Delete_Car checkResponseBody
INFO: Response Body ==> {"id":"7","carType":"City","timeIn":"11:10 AM","problem":"Wheel Steering"}
May 04, 2020 1:37:33 PM com.carserviceapi.testCase.TC_8_Delete_Car checkStatusCode
INFO: ======== Checking Status Code ========
May 04, 2020 1:37:33 PM com.carserviceapi.testCase.TC_8_Delete_Car checkStatusCode
INFO: Status Code ==> 200
May 04, 2020 1:37:33 PM com.carserviceapi.testCase.TC_8_Delete_Car checkResponseTime
INFO: ======== Checking Response Time ========
May 04, 2020 1:37:33 PM com.carserviceapi.testCase.TC_8_Delete_Car checkResponseTime
INFO: Response Time ==> 1480 ms
May 04, 2020 1:37:33 PM com.carserviceapi.testCase.TC_8_Delete_Car checkStatusLine
INFO: ======== Checking Status Line ========
May 04, 2020 1:37:33 PM com.carserviceapi.testCase.TC_8_Delete_Car checkStatusLine
INFO: Status Line ==> HTTP/1.1 200 OK
May 04, 2020 1:37:33 PM com.carserviceapi.testCase.TC_8_Delete_Car checkContentType
INFO: ======== Checking Content Type ========
May 04, 2020 1:37:33 PM com.carserviceapi.testCase.TC_8_Delete_Car checkContentType
INFO: Content Type ==> application/json
May 04, 2020 1:37:33 PM com.carserviceapi.testCase.TC_8_Delete_Car checkServer
INFO: ======== Checking Server Type ========
May 04, 2020 1:37:33 PM com.carserviceapi.testCase.TC_8_Delete_Car checkServer
INFO: Server Type ==> Cowboy
May 04, 2020 1:37:33 PM com.carserviceapi.testCase.TC_8_Delete_Car checkContentLength
INFO: ======== Checking Content Length ========
May 04, 2020 1:37:33 PM com.carserviceapi.testCase.TC_8_Delete_Car checkContentLength
INFO: Content Length ==> 74
May 04, 2020 1:37:33 PM com.carserviceapi.testCase.TC_8_Delete_Car tearDown
INFO: ======== TC_8_Delete_Car FINISHED ========
